/Users/duyhuynhviet/Downloads/SeleniumMavenProject_TietKiemNhom/src/main/java/web/utilities/ExcelUtils.java
/Users/duyhuynhviet/Downloads/SeleniumMavenProject_TietKiemNhom/src/main/java/web/utilities/Browser.java
/Users/duyhuynhviet/Downloads/SeleniumMavenProject_TietKiemNhom/src/main/java/web/utilities/Common.java
/Users/duyhuynhviet/Downloads/SeleniumMavenProject_TietKiemNhom/src/main/java/com/tietkiemnhom/pages/TietKiemNhom.java
/Users/duyhuynhviet/Downloads/SeleniumMavenProject_TietKiemNhom/src/main/java/web/utilities/TestListener.java
